{
  "hosting": {
    "site": "acera-staging",
    "public": "build",
    "rewrites": [{
      "source": "/hi",
      "function": "app_staging"
    },{
      "source": "/api/*",
      "function": "app_staging"
    },{
      "source": "/api/pathways/*/*",
      "function": "app_staging"
    },{
      "source": "/api/v2/pathways/*/*",
      "function": "app_staging"
    },{
      "source": "/api/*/*",
      "function": "app_staging"
    },{
      "source": "/login",
      "destination": "/index.html"
    },{
      "source": "/badges/*",
      "destination": "/index.html"
    },{
      "source": "/award/*",
      "destination": "/index.html"
    },{
      "source": "/pathway",
      "destination": "/index.html"
    },{
      "source": "/webhooks",
      "destination": "/index.html"
    },{
      "source": "/pathway/*",
      "destination": "/index.html"
    },{
      "source": "/backpack",
      "destination": "/index.html"
    },{
      "source": "/groups",
      "destination": "/index.html"
    },{
      "source": "/groups/new",
      "destination": "/index.html"
    },{
      "source": "/groups/edit/*",
      "destination": "/index.html"
    },{
      "source": "/groups/*",
      "destination": "/index.html"
    }],
    "ignore": [
      "firebase.json",
      "**/.*",
      "**/node_modules/**"
    ]
  }
}
